{
  "defaultSeverity": "warning",
  "extends": "tslint-config-standard",
  "linterOptions": {
    "exclude": [
      "node_modules/**"
    ]
  },
  "rules": {
    "indent": [true, "spaces", 2],
    "interface-name": false,
    "no-consecutive-blank-lines": false,
    "object-literal-sort-keys": false,
    "ordered-imports": false,
    "quotemark": [true, "single"]
  }
}
